ActionConverter.tlsf,realizable
Automata.tlsf,realizable
Automata16S.tlsf,realizable
Automata32S.tlsf,realizable
Button.tlsf,realizable
Cockpitboard.tlsf,realizable
EnemeyModule.tlsf,realizable
EscalatorBidirectional.tlsf,realizable
EscalatorBidirectionalInit.tlsf,realizable
EscalatorCounting.tlsf,realizable
EscalatorCountingInit.tlsf,realizable
EscalatorNonCounting.tlsf,realizable
EscalatorNonReactive.tlsf,realizable
EscalatorSmart.tlsf,realizable
Gamelogic.tlsf,realizable
GamemodeChooser.tlsf,realizable
Gamemodule.tlsf,realizable
Increment.tlsf,realizable
KitchenTimerV0.tlsf,realizable
KitchenTimerV1.tlsf,realizable
KitchenTimerV10.tlsf,realizable
KitchenTimerV2.tlsf,realizable
KitchenTimerV3.tlsf,realizable
KitchenTimerV4.tlsf,realizable
KitchenTimerV5.tlsf,realizable
KitchenTimerV6.tlsf,realizable
KitchenTimerV7.tlsf,realizable
KitchenTimerV8.tlsf,realizable
KitchenTimerV9.tlsf,realizable
LedMatrix.tlsf,realizable
ModdifiedLedMatrix4X.tlsf,unrealizable
ModdifiedLedMatrix5X.tlsf,realizable
MusicAppFeedback.tlsf,realizable
MusicAppMotivating.tlsf,realizable
MusicAppSimple.tlsf,realizable
OneCounter.tlsf,realizable
OneCounterGui.tlsf,unrealizable
OneCounterGuiA0.tlsf,unrealizable
OneCounterGuiA1.tlsf,unrealizable
OneCounterGuiA2.tlsf,unrealizable
OneCounterGuiA3.tlsf,unrealizable
OneCounterGuiA4.tlsf,unrealizable
OneCounterGuiA5.tlsf,unrealizable
OneCounterGuiA6.tlsf,unrealizable
OneCounterGuiA7.tlsf,unrealizable
OneCounterGuiA8.tlsf,unrealizable
OneCounterGuiA9.tlsf,realizable
OneCounterInRange.tlsf,unrealizable
OneCounterInRangeA0.tlsf,unrealizable
OneCounterInRangeA1.tlsf,unrealizable
OneCounterInRangeA2.tlsf,unrealizable
OneCounterInRangeA3.tlsf,realizable
Radarboard.tlsf,realizable
RegManager.tlsf,realizable
RotationCalculator.tlsf,realizable
SPI.tlsf,realizable
SPIPureNext.tlsf,realizable
SPIReadClk.tlsf,realizable
SPIReadManag.tlsf,realizable
SPIReadSdi.tlsf,realizable
SPIWriteClk.tlsf,realizable
SPIWriteManag.tlsf,realizable
SPIWriteSdi.tlsf,realizable
Scoreboard.tlsf,realizable
Sensor.tlsf,realizable
SensorInit.tlsf,realizable
SensorPart.tlsf,realizable
SensorRegister.tlsf,realizable
SensorSelector.tlsf,realizable
SensorSubmodulChooser.tlsf,realizable
SliderDefault.tlsf,realizable
SliderDelayed.tlsf,realizable
SliderScored.tlsf,realizable
TorcsAccelerating.tlsf,realizable
TorcsGearing.tlsf,realizable
TorcsSimple.tlsf,realizable
TorcsSteeringImproved.tlsf,realizable
TorcsSteeringSimple.tlsf,realizable
TorcsSteeringSmart.tlsf,realizable
TwoCounters.tlsf,unrealizable
TwoCounters2.tlsf,unrealizable
TwoCounters3.tlsf,realizable
TwoCounters4.tlsf,realizable
TwoCounters5.tlsf,unrealizable
TwoCountersDisButA0.tlsf,unrealizable
TwoCountersDisButA1.tlsf,unrealizable
TwoCountersDisButA2.tlsf,unrealizable
TwoCountersDisButA3.tlsf,unrealizable
TwoCountersDisButA4.tlsf,unrealizable
TwoCountersDisButA5.tlsf,unrealizable
TwoCountersDisButA6.tlsf,unrealizable
TwoCountersDisButA7.tlsf,unrealizable
TwoCountersDisButA8.tlsf,unrealizable
TwoCountersDisButA9.tlsf,unrealizable
TwoCountersDisButAC.tlsf,unrealizable
TwoCountersGui.tlsf,unrealizable
TwoCountersInRange.tlsf,unrealizable
TwoCountersInRangeA0.tlsf,unrealizable
TwoCountersInRangeA1.tlsf,unrealizable
TwoCountersInRangeA2.tlsf,unrealizable
TwoCountersInRangeA3.tlsf,unrealizable
TwoCountersInRangeA4.tlsf,unrealizable
TwoCountersInRangeA5.tlsf,unrealizable
TwoCountersInRangeA6.tlsf,realizable
TwoCountersInRangeM0.tlsf,unrealizable
TwoCountersInRangeM1.tlsf,unrealizable
TwoCountersInRangeM2.tlsf,unrealizable
TwoCountersInRangeM3.tlsf,unrealizable
TwoCountersInRangeM4.tlsf,unrealizable
TwoCountersInRangeM5.tlsf,unrealizable
TwoCountersRefined.tlsf,unrealizable
TwoCountersRefinedRefined.tlsf,realizable
UnderapproxDemo.tlsf,unrealizable
UnderapproxDemo2.tlsf,unrealizable
UnderapproxStrengthenedDemo.tlsf,realizable
Zoo0.tlsf,realizable
Zoo10.tlsf,realizable
Zoo5.tlsf,realizable
amba_case_study_2.tlsf,realizable
amba_case_study_3.tlsf,realizable
amba_decomposed_arbiter_10.tlsf,realizable
amba_decomposed_arbiter_12.tlsf,realizable
amba_decomposed_arbiter_2.tlsf,realizable
amba_decomposed_arbiter_4.tlsf,realizable
amba_decomposed_arbiter_6.tlsf,realizable
amba_decomposed_arbiter_8.tlsf,realizable
amba_decomposed_encode_10.tlsf,realizable
amba_decomposed_encode_12.tlsf,realizable
amba_decomposed_encode_2.tlsf,realizable
amba_decomposed_encode_4.tlsf,realizable
amba_decomposed_encode_6.tlsf,realizable
amba_decomposed_encode_8.tlsf,realizable
amba_decomposed_lock_10.tlsf,realizable
amba_decomposed_lock_12.tlsf,realizable
amba_decomposed_lock_2.tlsf,realizable
amba_decomposed_lock_4.tlsf,realizable
amba_decomposed_lock_6.tlsf,realizable
amba_decomposed_lock_8.tlsf,realizable
amba_decomposed_shift.tlsf,realizable
amba_decomposed_tburst4.tlsf,realizable
amba_decomposed_tincr.tlsf,realizable
amba_decomposed_tsingle.tlsf,realizable
button.tlsf,realizable
collector_v1_2.tlsf,realizable
collector_v1_3.tlsf,realizable
collector_v1_4.tlsf,realizable
collector_v1_5.tlsf,realizable
collector_v1_6.tlsf,realizable
collector_v1_7.tlsf,realizable
collector_v2_2.tlsf,realizable
collector_v2_3.tlsf,realizable
collector_v2_4.tlsf,realizable
collector_v2_5.tlsf,realizable
collector_v2_6.tlsf,realizable
collector_v2_7.tlsf,realizable
collector_v3_2.tlsf,realizable
collector_v3_3.tlsf,realizable
collector_v3_4.tlsf,realizable
collector_v3_5.tlsf,realizable
collector_v3_6.tlsf,realizable
collector_v3_7.tlsf,realizable
collector_v4_2.tlsf,realizable
collector_v4_3.tlsf,realizable
collector_v4_4.tlsf,realizable
collector_v4_5.tlsf,realizable
collector_v4_6.tlsf,realizable
collector_v4_7.tlsf,realizable
detector_10.tlsf,realizable
detector_12.tlsf,realizable
detector_2.tlsf,realizable
detector_4.tlsf,realizable
detector_6.tlsf,realizable
detector_8.tlsf,realizable
detector_unreal_10.tlsf,unrealizable
detector_unreal_12.tlsf,unrealizable
detector_unreal_2.tlsf,unrealizable
detector_unreal_4.tlsf,unrealizable
detector_unreal_6.tlsf,unrealizable
detector_unreal_8.tlsf,unrealizable
escalator_bidirectional.tlsf,realizable
escalator_bidirectional_init.tlsf,realizable
escalator_counting.tlsf,realizable
escalator_counting_init.tlsf,realizable
escalator_non-counting.tlsf,realizable
escalator_non-reactive.tlsf,realizable
escalator_smart.tlsf,realizable
full_arbiter_2.tlsf,realizable
full_arbiter_3.tlsf,realizable
full_arbiter_4.tlsf,realizable
full_arbiter_5.tlsf,realizable
full_arbiter_6.tlsf,realizable
full_arbiter_7.tlsf,realizable
full_arbiter_enc_10.tlsf,realizable
full_arbiter_enc_12.tlsf,realizable
full_arbiter_enc_2.tlsf,realizable
full_arbiter_enc_4.tlsf,realizable
full_arbiter_enc_6.tlsf,realizable
full_arbiter_enc_8.tlsf,realizable
full_arbiter_unreal1_3_10.tlsf,unrealizable
full_arbiter_unreal1_3_12.tlsf,unrealizable
full_arbiter_unreal1_3_2.tlsf,unrealizable
full_arbiter_unreal1_3_4.tlsf,unrealizable
full_arbiter_unreal1_3_6.tlsf,unrealizable
full_arbiter_unreal1_3_8.tlsf,unrealizable
genbuf2.tlsf,realizable
genbuf3.tlsf,realizable
genbuf4.tlsf,realizable
generalized_buffer_2.tlsf,realizable
generalized_buffer_3.tlsf,realizable
generalized_buffer_4.tlsf,realizable
increment.tlsf,realizable
lilydemo01.tlsf,unrealizable
lilydemo02.tlsf,unrealizable
lilydemo03.tlsf,realizable
lilydemo04.tlsf,realizable
lilydemo05.tlsf,realizable
lilydemo06.tlsf,realizable
lilydemo07.tlsf,realizable
lilydemo08.tlsf,realizable
lilydemo09.tlsf,realizable
lilydemo10.tlsf,realizable
lilydemo11.tlsf,unrealizable
lilydemo12.tlsf,realizable
lilydemo13.tlsf,realizable
lilydemo14.tlsf,realizable
lilydemo15.tlsf,unrealizable
lilydemo16.tlsf,unrealizable
lilydemo17.tlsf,realizable
lilydemo18.tlsf,realizable
lilydemo19.tlsf,realizable
lilydemo20.tlsf,realizable
lilydemo21.tlsf,realizable
lilydemo22.tlsf,realizable
lilydemo23.tlsf,realizable
lilydemo24.tlsf,realizable
load_balancer_10.tlsf,realizable
load_balancer_12.tlsf,realizable
load_balancer_2.tlsf,realizable
load_balancer_4.tlsf,realizable
load_balancer_6.tlsf,realizable
load_balancer_8.tlsf,realizable
load_balancer_unreal1_2_10.tlsf,unrealizable
load_balancer_unreal1_2_12.tlsf,unrealizable
load_balancer_unreal1_2_2.tlsf,unrealizable
load_balancer_unreal1_2_4.tlsf,unrealizable
load_balancer_unreal1_2_6.tlsf,unrealizable
load_balancer_unreal1_2_8.tlsf,unrealizable
loadcomp2.tlsf,realizable
loadcomp3.tlsf,realizable
loadcomp4.tlsf,realizable
loadcomp5.tlsf,realizable
loadfull2.tlsf,realizable
loadfull3.tlsf,realizable
loadfull4.tlsf,realizable
loadfull5.tlsf,realizable
ltl2dba01.tlsf,realizable
ltl2dba02.tlsf,realizable
ltl2dba03.tlsf,realizable
ltl2dba04.tlsf,realizable
ltl2dba05.tlsf,realizable
ltl2dba06.tlsf,realizable
ltl2dba07.tlsf,realizable
ltl2dba08.tlsf,realizable
ltl2dba09.tlsf,realizable
ltl2dba10.tlsf,realizable
ltl2dba11.tlsf,realizable
ltl2dba12.tlsf,realizable
ltl2dba13.tlsf,realizable
ltl2dba14.tlsf,realizable
ltl2dba15.tlsf,realizable
ltl2dba16.tlsf,realizable
ltl2dba17.tlsf,realizable
ltl2dba18.tlsf,realizable
ltl2dba19.tlsf,realizable
ltl2dba20.tlsf,realizable
ltl2dba21.tlsf,realizable
ltl2dba22.tlsf,realizable
ltl2dba23.tlsf,realizable
ltl2dba24.tlsf,realizable
ltl2dba25.tlsf,realizable
ltl2dba26.tlsf,realizable
ltl2dba27.tlsf,unrealizable
ltl2dba_C2_10.tlsf,realizable
ltl2dba_C2_12.tlsf,realizable
ltl2dba_C2_2.tlsf,realizable
ltl2dba_C2_4.tlsf,realizable
ltl2dba_C2_6.tlsf,realizable
ltl2dba_C2_8.tlsf,realizable
ltl2dba_E_10.tlsf,realizable
ltl2dba_E_12.tlsf,realizable
ltl2dba_E_2.tlsf,realizable
ltl2dba_E_4.tlsf,realizable
ltl2dba_E_6.tlsf,realizable
ltl2dba_E_8.tlsf,realizable
ltl2dba_Q_10.tlsf,realizable
ltl2dba_Q_12.tlsf,realizable
ltl2dba_Q_2.tlsf,realizable
ltl2dba_Q_4.tlsf,realizable
ltl2dba_Q_6.tlsf,realizable
ltl2dba_Q_8.tlsf,realizable
ltl2dba_R_10.tlsf,unrealizable
ltl2dba_R_2.tlsf,unrealizable
ltl2dba_R_4.tlsf,unrealizable
ltl2dba_R_6.tlsf,unrealizable
ltl2dba_R_8.tlsf,unrealizable
ltl2dba_U1_10.tlsf,realizable
ltl2dba_U1_12.tlsf,realizable
ltl2dba_U1_2.tlsf,realizable
ltl2dba_U1_4.tlsf,realizable
ltl2dba_U1_6.tlsf,realizable
ltl2dba_U1_8.tlsf,realizable
ltl2dba_alpha_10.tlsf,realizable
ltl2dba_alpha_12.tlsf,realizable
ltl2dba_alpha_2.tlsf,realizable
ltl2dba_alpha_4.tlsf,realizable
ltl2dba_alpha_6.tlsf,realizable
ltl2dba_alpha_8.tlsf,realizable
ltl2dba_beta_10.tlsf,realizable
ltl2dba_beta_12.tlsf,realizable
ltl2dba_beta_2.tlsf,realizable
ltl2dba_beta_4.tlsf,realizable
ltl2dba_beta_6.tlsf,realizable
ltl2dba_beta_8.tlsf,realizable
ltl2dba_theta_10.tlsf,unrealizable
ltl2dba_theta_12.tlsf,unrealizable
ltl2dba_theta_2.tlsf,unrealizable
ltl2dba_theta_4.tlsf,unrealizable
ltl2dba_theta_6.tlsf,unrealizable
ltl2dba_theta_8.tlsf,unrealizable
ltl2dpa01.tlsf,realizable
ltl2dpa02.tlsf,realizable
ltl2dpa03.tlsf,realizable
ltl2dpa04.tlsf,realizable
ltl2dpa05.tlsf,realizable
ltl2dpa06.tlsf,realizable
ltl2dpa07.tlsf,realizable
ltl2dpa08.tlsf,realizable
ltl2dpa09.tlsf,realizable
ltl2dpa10.tlsf,realizable
ltl2dpa11.tlsf,realizable
ltl2dpa12.tlsf,realizable
ltl2dpa13.tlsf,realizable
ltl2dpa14.tlsf,realizable
ltl2dpa15.tlsf,realizable
ltl2dpa16.tlsf,realizable
ltl2dpa17.tlsf,realizable
ltl2dpa18.tlsf,realizable
ltl2dpa19.tlsf,realizable
ltl2dpa20.tlsf,realizable
ltl2dpa21.tlsf,realizable
ltl2dpa22.tlsf,realizable
ltl2dpa23.tlsf,realizable
ltl2dpa24.tlsf,realizable
music_app_feedback.tlsf,realizable
music_app_motivating.tlsf,realizable
music_app_motivating_2.tlsf,realizable
music_app_simple.tlsf,realizable
mux_10.tlsf,realizable
mux_12.tlsf,realizable
mux_2.tlsf,realizable
mux_4.tlsf,realizable
mux_6.tlsf,realizable
mux_8.tlsf,realizable
narylatch_10.tlsf,realizable
narylatch_12.tlsf,realizable
narylatch_2.tlsf,realizable
narylatch_4.tlsf,realizable
narylatch_6.tlsf,realizable
narylatch_8.tlsf,realizable
prioritized_arbiter_10.tlsf,realizable
prioritized_arbiter_12.tlsf,realizable
prioritized_arbiter_2.tlsf,realizable
prioritized_arbiter_4.tlsf,realizable
prioritized_arbiter_6.tlsf,realizable
prioritized_arbiter_8.tlsf,realizable
prioritized_arbiter_enc_10.tlsf,realizable
prioritized_arbiter_enc_12.tlsf,realizable
prioritized_arbiter_enc_2.tlsf,realizable
prioritized_arbiter_enc_4.tlsf,realizable
prioritized_arbiter_enc_6.tlsf,realizable
prioritized_arbiter_enc_8.tlsf,realizable
prioritized_arbiter_unreal1_3_10.tlsf,unrealizable
prioritized_arbiter_unreal1_3_2.tlsf,unrealizable
prioritized_arbiter_unreal1_3_4.tlsf,unrealizable
prioritized_arbiter_unreal1_3_6.tlsf,unrealizable
prioritized_arbiter_unreal1_3_8.tlsf,unrealizable
round_robin_arbiter_2.tlsf,realizable
round_robin_arbiter_3.tlsf,realizable
round_robin_arbiter_4.tlsf,realizable
round_robin_arbiter_5.tlsf,realizable
round_robin_arbiter_6.tlsf,realizable
round_robin_arbiter_7.tlsf,realizable
round_robin_arbiter_unreal1_2_12.tlsf,unrealizable
round_robin_arbiter_unreal1_2_15.tlsf,unrealizable
round_robin_arbiter_unreal1_2_18.tlsf,unrealizable
round_robin_arbiter_unreal1_2_3.tlsf,unrealizable
round_robin_arbiter_unreal1_2_6.tlsf,unrealizable
round_robin_arbiter_unreal1_2_9.tlsf,unrealizable
shift_10.tlsf,realizable
shift_12.tlsf,realizable
shift_2.tlsf,realizable
shift_4.tlsf,realizable
shift_6.tlsf,realizable
shift_8.tlsf,realizable
simple_arbiter_10.tlsf,realizable
simple_arbiter_12.tlsf,realizable
simple_arbiter_2.tlsf,realizable
simple_arbiter_4.tlsf,realizable
simple_arbiter_6.tlsf,realizable
simple_arbiter_8.tlsf,realizable
simple_arbiter_enc_10.tlsf,realizable
simple_arbiter_enc_12.tlsf,realizable
simple_arbiter_enc_2.tlsf,realizable
simple_arbiter_enc_4.tlsf,realizable
simple_arbiter_enc_6.tlsf,realizable
simple_arbiter_enc_8.tlsf,realizable
simple_arbiter_unreal2_2.tlsf,unrealizable
simple_arbiter_unreal2_3.tlsf,unrealizable
simple_arbiter_unreal2_4.tlsf,unrealizable
simple_arbiter_unreal2_5.tlsf,unrealizable
simple_arbiter_unreal2_6.tlsf,unrealizable
slider_default.tlsf,realizable
slider_delayed.tlsf,realizable
slider_scored.tlsf,realizable
tictactoe.tlsf,realizable
torcs_accelerating.tlsf,realizable
torcs_gearing.tlsf,realizable
torcs_simple.tlsf,realizable
torcs_steering_improved.tlsf,realizable
torcs_steering_simple.tlsf,realizable
torcs_steering_smart.tlsf,realizable
zoo0.tlsf,realizable
zoo10.tlsf,realizable
zoo5.tlsf,realizable
