file,result,time,size_aiger,result_verification,time_verification
ActionConverter.tlsf,realizable,.07,24,passed,.09
Automata.tlsf,realizable,4.44,72,passed,8.26
Button.tlsf,realizable,.05,0,passed,.07
Cockpitboard.tlsf,realizable,260.96,23,passed,.16
EnemeyModule.tlsf,realizable,.06,2,passed,.08
EscalatorBidirectional.tlsf,realizable,.39,337,passed,.63
EscalatorBidirectionalInit.tlsf,realizable,.63,400,passed,1.42
EscalatorCounting.tlsf,realizable,.06,100,passed,.22
EscalatorCountingInit.tlsf,realizable,.07,90,passed,.24
EscalatorNonCounting.tlsf,realizable,.06,5,passed,.09
EscalatorNonReactive.tlsf,realizable,.05,0,passed,.09
EscalatorSmart.tlsf,realizable,.11,145,passed,1.12
GamemodeChooser.tlsf,realizable,4.23,119,passed,.32
Gamemodule.tlsf,realizable,.06,29,passed,.12
Increment.tlsf,realizable,.05,0,passed,.07
KitchenTimerV0.tlsf,realizable,.06,1,passed,.07
KitchenTimerV1.tlsf,realizable,.07,72,passed,.23
KitchenTimerV10.tlsf,realizable,54.66,2900,passed,1278.55
KitchenTimerV2.tlsf,realizable,.26,562,passed,2.94
KitchenTimerV3.tlsf,realizable,.75,1309,passed,24.29
KitchenTimerV4.tlsf,realizable,1.34,1623,passed,47.35
KitchenTimerV5.tlsf,realizable,4.65,2493,passed,254.63
KitchenTimerV6.tlsf,realizable,9.20,4117,passed,486.28
KitchenTimerV7.tlsf,realizable,11.15,4707,passed,743.28
KitchenTimerV8.tlsf,realizable,33.74,4707,passed,762.87
KitchenTimerV9.tlsf,realizable,36.43,5797,passed,969.71
MusicAppFeedback.tlsf,realizable,.10,126,passed,.40
MusicAppMotivating.tlsf,realizable,.13,267,passed,.97
MusicAppSimple.tlsf,realizable,.07,56,passed,.31
OneCounter.tlsf,realizable,121.17,2534,passed,21.35
OneCounterGuiA9.tlsf,realizable,121.31,2534,passed,22.20
OneCounterInRangeA3.tlsf,realizable,.09,38,passed,.20
RegManager.tlsf,realizable,.06,0,passed,.07
RotationCalculator.tlsf,realizable,.22,45,passed,.20
SPI.tlsf,realizable,7.55,292,passed,2.74
SPIReadClk.tlsf,realizable,.05,2,passed,.07
SPIReadManag.tlsf,realizable,287.26,834,passed,2.48
SPIReadSdi.tlsf,realizable,.06,9,passed,.14
SPIWriteClk.tlsf,realizable,.05,4,passed,.06
SPIWriteManag.tlsf,realizable,11.90,269,passed,.51
SPIWriteSdi.tlsf,realizable,.09,44,passed,.19
Scoreboard.tlsf,realizable,.46,20,passed,.09
Sensor.tlsf,realizable,1.09,372,passed,3.06
SensorInit.tlsf,realizable,6.40,67,passed,5.33
SensorPart.tlsf,realizable,87.43,64,passed,4.82
SensorRegister.tlsf,realizable,.05,0,passed,.09
SensorSubmodulChooser.tlsf,realizable,8.76,196,passed,.54
SliderDefault.tlsf,realizable,.10,85,passed,.27
SliderDelayed.tlsf,realizable,2.16,440,passed,1.37
SliderScored.tlsf,realizable,.87,261,passed,.56
TorcsAccelerating.tlsf,realizable,.06,1,passed,.08
TorcsGearing.tlsf,realizable,.06,16,passed,.11
TorcsSimple.tlsf,realizable,.08,18,passed,.10
TorcsSteeringImproved.tlsf,realizable,.24,182,passed,.48
TorcsSteeringSimple.tlsf,realizable,.06,25,passed,.12
TorcsSteeringSmart.tlsf,realizable,.12,122,passed,1.92
TwoCounters3.tlsf,realizable,50.86,73,passed,.17
TwoCounters4.tlsf,realizable,57.90,1772,passed,5.55
TwoCountersInRangeA6.tlsf,realizable,64.70,1772,passed,5.93
TwoCountersRefinedRefined.tlsf,realizable,.54,338,passed,.86
UnderapproxStrengthenedDemo.tlsf,realizable,.05,0,passed,.08
Zoo0.tlsf,realizable,.21,87,passed,.27
Zoo10.tlsf,realizable,.12,75,passed,.25
Zoo5.tlsf,realizable,.12,67,passed,.28
amba_decomposed_arbiter_2.tlsf,realizable,.08,148,passed,.41
amba_decomposed_arbiter_4.tlsf,realizable,1.03,2524,passed,34.73
amba_decomposed_arbiter_6.tlsf,realizable,48.60,16808,passed,1126.85
amba_decomposed_encode_10.tlsf,realizable,10.71,2078,passed,11.36
amba_decomposed_encode_12.tlsf,realizable,95.71,3577,passed,13.76
amba_decomposed_encode_2.tlsf,realizable,.05,55,passed,.16
amba_decomposed_encode_4.tlsf,realizable,.09,227,passed,.47
amba_decomposed_encode_6.tlsf,realizable,.34,573,passed,1.55
amba_decomposed_encode_8.tlsf,realizable,1.23,1155,passed,4.34
amba_decomposed_lock_10.tlsf,realizable,879.78,805,passed,2.46
amba_decomposed_lock_2.tlsf,realizable,.06,96,passed,.24
amba_decomposed_lock_4.tlsf,realizable,.11,221,passed,.50
amba_decomposed_lock_6.tlsf,realizable,.90,372,passed,.90
amba_decomposed_lock_8.tlsf,realizable,39.62,575,passed,1.47
amba_decomposed_shift.tlsf,realizable,.05,26,passed,.12
amba_decomposed_tburst4.tlsf,realizable,.12,178,passed,1.61
amba_decomposed_tincr.tlsf,realizable,.08,499,passed,1.96
amba_decomposed_tsingle.tlsf,realizable,.06,143,passed,.48
button.tlsf,realizable,.05,0,passed,.07
collector_v1_2.tlsf,realizable,.06,93,passed,.40
collector_v1_3.tlsf,realizable,.06,270,passed,1.41
collector_v1_4.tlsf,realizable,.08,812,passed,7.35
collector_v1_5.tlsf,realizable,.24,2392,passed,45.70
collector_v1_6.tlsf,realizable,.69,7110,passed,129.96
collector_v1_7.tlsf,realizable,3.53,21642,passed,498.36
collector_v2_2.tlsf,realizable,.07,153,passed,.94
collector_v2_3.tlsf,realizable,.12,1064,passed,15.87
collector_v2_4.tlsf,realizable,.52,8292,passed,845.16
collector_v3_2.tlsf,realizable,.06,107,passed,.20
collector_v3_3.tlsf,realizable,.15,364,passed,.80
collector_v3_4.tlsf,realizable,1.15,1107,passed,5.45
collector_v3_5.tlsf,realizable,134.40,3317,passed,16.09
collector_v4_2.tlsf,realizable,.07,110,passed,.64
collector_v4_3.tlsf,realizable,.11,669,passed,7.02
collector_v4_4.tlsf,realizable,.78,5941,passed,177.99
detector_2.tlsf,realizable,.06,62,passed,.13
detector_4.tlsf,realizable,.12,2344,passed,82.82
detector_6.tlsf,realizable,7.58,422872,timeout,3600.00
escalator_bidirectional.tlsf,realizable,.37,344,passed,.80
escalator_bidirectional_init.tlsf,realizable,.50,413,passed,1.63
escalator_counting.tlsf,realizable,.07,98,passed,.17
escalator_counting_init.tlsf,realizable,.07,91,passed,.23
escalator_non-counting.tlsf,realizable,.05,5,passed,.07
escalator_non-reactive.tlsf,realizable,.04,0,passed,.06
escalator_smart.tlsf,realizable,.11,172,passed,1.32
full_arbiter_2.tlsf,realizable,.06,79,passed,.59
full_arbiter_3.tlsf,realizable,.12,395,passed,7.92
full_arbiter_4.tlsf,realizable,.68,1709,passed,122.03
full_arbiter_5.tlsf,realizable,4.40,7039,passed,1068.99
full_arbiter_6.tlsf,realizable,43.21,28264,timeout,3600.00
full_arbiter_7.tlsf,realizable,396.30,112488,timeout,3600.00
full_arbiter_enc_2.tlsf,realizable,.11,152,passed,1.09
full_arbiter_enc_4.tlsf,realizable,1.19,2964,timeout,3600.00
full_arbiter_enc_6.tlsf,realizable,16.89,33992,timeout,3600.00
increment.tlsf,realizable,.05,0,passed,.08
lilydemo03.tlsf,realizable,.07,189,passed,.43
lilydemo04.tlsf,realizable,.06,265,passed,.78
lilydemo05.tlsf,realizable,.06,247,passed,.51
lilydemo06.tlsf,realizable,.06,276,passed,.81
lilydemo07.tlsf,realizable,.06,79,passed,.23
lilydemo08.tlsf,realizable,.05,20,passed,.09
lilydemo09.tlsf,realizable,.05,22,passed,.10
lilydemo10.tlsf,realizable,.05,30,passed,.10
lilydemo12.tlsf,realizable,.05,34,passed,.10
lilydemo13.tlsf,realizable,.05,2,passed,.05
lilydemo14.tlsf,realizable,.06,229,passed,.48
lilydemo17.tlsf,realizable,.09,485,passed,1.20
lilydemo19.tlsf,realizable,.06,120,passed,.39
lilydemo20.tlsf,realizable,.09,18,passed,.13
lilydemo21.tlsf,realizable,4.38,166,passed,.33
lilydemo22.tlsf,realizable,.10,193,passed,.52
lilydemo23.tlsf,realizable,.05,35,passed,.18
lilydemo24.tlsf,realizable,.07,39,passed,.15
load_balancer_2.tlsf,realizable,.07,189,passed,.65
load_balancer_4.tlsf,realizable,.46,1368,passed,11.55
load_balancer_6.tlsf,realizable,20.10,21778,passed,1581.32
load_balancer_8.tlsf,realizable,2443.46,427737,timeout,3600.00
loadcomp2.tlsf,realizable,.06,195,passed,.50
loadcomp3.tlsf,realizable,.08,488,passed,2.90
loadcomp4.tlsf,realizable,.23,1032,passed,22.60
loadcomp5.tlsf,realizable,.74,2021,passed,254.81
loadfull2.tlsf,realizable,.10,219,passed,.40
loadfull3.tlsf,realizable,.19,623,passed,2.14
loadfull4.tlsf,realizable,.78,1966,passed,19.03
loadfull5.tlsf,realizable,3.13,6677,passed,235.39
ltl2dba01.tlsf,realizable,.05,27,passed,.14
ltl2dba02.tlsf,realizable,.06,177,passed,.57
ltl2dba03.tlsf,realizable,.05,33,passed,.14
ltl2dba04.tlsf,realizable,.06,40,passed,.15
ltl2dba05.tlsf,realizable,.06,71,passed,.23
ltl2dba06.tlsf,realizable,.06,37,passed,.19
ltl2dba07.tlsf,realizable,.09,113,passed,.61
ltl2dba08.tlsf,realizable,.52,27386,timeout,3600.00
ltl2dba09.tlsf,realizable,.05,9,passed,.16
ltl2dba10.tlsf,realizable,.05,20,passed,.12
ltl2dba11.tlsf,realizable,.05,3,passed,.14
ltl2dba12.tlsf,realizable,.06,31,passed,.12
ltl2dba13.tlsf,realizable,.06,60,passed,.16
ltl2dba14.tlsf,realizable,.06,38,passed,.18
ltl2dba15.tlsf,realizable,.06,6,passed,.16
ltl2dba16.tlsf,realizable,.06,44,passed,.16
ltl2dba17.tlsf,realizable,.07,361,passed,.91
ltl2dba18.tlsf,realizable,.06,103,passed,.33
ltl2dba19.tlsf,realizable,.06,95,passed,.33
ltl2dba20.tlsf,realizable,.07,356,passed,1.54
ltl2dba21.tlsf,realizable,.10,1076,passed,5.52
ltl2dba22.tlsf,realizable,.05,12,passed,.12
ltl2dba23.tlsf,realizable,.05,27,passed,.17
ltl2dba24.tlsf,realizable,.05,12,passed,.09
ltl2dba25.tlsf,realizable,.06,43,passed,.16
ltl2dba26.tlsf,realizable,.06,44,passed,.16
ltl2dba_C2_2.tlsf,realizable,.06,62,passed,.22
ltl2dba_C2_4.tlsf,realizable,.13,2344,passed,77.37
ltl2dba_C2_6.tlsf,realizable,7.04,422872,timeout,3600.00
ltl2dba_C2_8.tlsf,timeout,3600.00,,
ltl2dba_E_10.tlsf,realizable,167.99,321799,timeout,3600.00
ltl2dba_E_2.tlsf,realizable,.05,42,passed,.14
ltl2dba_E_4.tlsf,realizable,.07,401,passed,1.04
ltl2dba_E_6.tlsf,realizable,.36,3630,passed,24.16
ltl2dba_E_8.tlsf,realizable,7.27,33896,passed,520.22
ltl2dba_Q_2.tlsf,realizable,.05,54,passed,.17
ltl2dba_Q_4.tlsf,realizable,.10,862,passed,5.16
ltl2dba_Q_6.tlsf,realizable,1.05,16563,passed,1010.93
ltl2dba_Q_8.tlsf,realizable,433.76,356959,timeout,3600.00
ltl2dba_U1_2.tlsf,realizable,.06,23,passed,.10
ltl2dba_U1_4.tlsf,realizable,.07,226,passed,.53
ltl2dba_U1_6.tlsf,realizable,.46,8285,passed,1193.95
ltl2dba_U1_8.tlsf,realizable,39.14,1142182,timeout,3600.00
ltl2dba_alpha_10.tlsf,realizable,.09,103,passed,4.36
ltl2dba_alpha_12.tlsf,realizable,.12,118,passed,14.72
ltl2dba_alpha_2.tlsf,realizable,.06,39,passed,.14
ltl2dba_alpha_4.tlsf,realizable,.07,56,passed,.49
ltl2dba_alpha_6.tlsf,realizable,.07,71,passed,.79
ltl2dba_alpha_8.tlsf,realizable,.08,86,passed,1.98
ltl2dba_beta_2.tlsf,realizable,.07,224,passed,.71
ltl2dba_beta_4.tlsf,realizable,1.14,1733,passed,26.79
ltl2dba_beta_6.tlsf,realizable,66.42,6822,passed,231.40
ltl2dpa01.tlsf,realizable,.08,16,passed,.21
ltl2dpa02.tlsf,realizable,.05,29,passed,.17
ltl2dpa03.tlsf,realizable,.32,4355,passed,138.29
ltl2dpa04.tlsf,realizable,.05,17,passed,.10
ltl2dpa05.tlsf,realizable,.05,6,passed,.10
ltl2dpa06.tlsf,realizable,.05,24,passed,.10
ltl2dpa07.tlsf,realizable,.06,68,passed,.18
ltl2dpa08.tlsf,realizable,.06,27,passed,.18
ltl2dpa09.tlsf,realizable,.06,66,passed,.26
ltl2dpa10.tlsf,realizable,.11,618,passed,4.28
ltl2dpa11.tlsf,realizable,.06,86,passed,.32
ltl2dpa12.tlsf,realizable,.13,551,passed,3.00
ltl2dpa13.tlsf,realizable,.15,759,passed,6.72
ltl2dpa14.tlsf,realizable,.08,17,passed,.24
ltl2dpa15.tlsf,realizable,.06,69,passed,.28
ltl2dpa16.tlsf,realizable,.06,53,passed,.19
ltl2dpa17.tlsf,realizable,.06,50,passed,.23
ltl2dpa18.tlsf,realizable,.06,50,passed,.28
ltl2dpa19.tlsf,realizable,.25,455,passed,4.14
ltl2dpa20.tlsf,realizable,.06,53,passed,.26
ltl2dpa21.tlsf,realizable,.16,618,passed,4.36
ltl2dpa22.tlsf,timeout,3600.00,,
ltl2dpa23.tlsf,realizable,.06,64,passed,.33
ltl2dpa24.tlsf,realizable,.06,64,passed,.32
music_app_feedback.tlsf,realizable,.08,161,passed,.63
music_app_motivating.tlsf,realizable,.12,260,passed,1.16
music_app_motivating_2.tlsf,realizable,.12,260,passed,1.14
music_app_simple.tlsf,realizable,.06,18,passed,.12
mux_10.tlsf,realizable,.05,0,passed,.15
mux_12.tlsf,realizable,.05,0,passed,.15
mux_2.tlsf,realizable,.05,0,passed,.07
mux_4.tlsf,realizable,.05,0,passed,.07
mux_6.tlsf,realizable,.05,0,passed,.08
mux_8.tlsf,realizable,.05,0,passed,.09
narylatch_10.tlsf,realizable,497.40,6349541,timeout,3600.00
narylatch_2.tlsf,realizable,.05,85,passed,.39
narylatch_4.tlsf,realizable,.08,1272,passed,8.91
narylatch_6.tlsf,realizable,.68,21888,passed,322.03
narylatch_8.tlsf,realizable,14.93,376661,timeout,3600.00
prioritized_arbiter_2.tlsf,realizable,.06,79,passed,.20
prioritized_arbiter_4.tlsf,realizable,.59,4477,passed,235.23
prioritized_arbiter_6.tlsf,realizable,23.16,60583,timeout,3600.00
prioritized_arbiter_8.tlsf,realizable,2904.61,747766,timeout,3600.00
prioritized_arbiter_enc_2.tlsf,realizable,.09,476,passed,8.69
prioritized_arbiter_enc_4.tlsf,realizable,1.97,5951,timeout,3600.00
prioritized_arbiter_enc_6.tlsf,realizable,25.69,66443,timeout,3600.00
round_robin_arbiter_2.tlsf,realizable,.06,104,passed,.36
round_robin_arbiter_3.tlsf,realizable,.19,400,passed,1.61
round_robin_arbiter_4.tlsf,realizable,1.26,1928,passed,43.64
round_robin_arbiter_5.tlsf,realizable,20.90,7800,timeout,3600.00
round_robin_arbiter_6.tlsf,realizable,583.76,30180,timeout,3600.00
shift_10.tlsf,realizable,.06,0,passed,.07
shift_12.tlsf,realizable,.12,0,passed,.08
shift_2.tlsf,realizable,.05,0,passed,.06
shift_4.tlsf,realizable,.05,0,passed,.07
shift_6.tlsf,realizable,.05,0,passed,.08
shift_8.tlsf,realizable,.05,0,passed,.07
simple_arbiter_10.tlsf,realizable,787.49,996921,timeout,3600.00
simple_arbiter_2.tlsf,realizable,.05,118,passed,.26
simple_arbiter_4.tlsf,realizable,.08,529,passed,2.61
simple_arbiter_6.tlsf,realizable,.78,7145,passed,270.39
simple_arbiter_8.tlsf,realizable,20.89,87834,timeout,3600.00
simple_arbiter_enc_10.tlsf,realizable,205.86,234717,timeout,3600.00
simple_arbiter_enc_12.tlsf,realizable,2774.20,1340983,timeout,3600.00
simple_arbiter_enc_2.tlsf,realizable,.06,30,passed,.19
simple_arbiter_enc_4.tlsf,realizable,.08,565,passed,9.07
simple_arbiter_enc_6.tlsf,realizable,.39,5276,timeout,3600.00
simple_arbiter_enc_8.tlsf,realizable,5.23,34346,timeout,3600.00
slider_default.tlsf,realizable,.09,83,passed,.39
slider_delayed.tlsf,realizable,2.05,444,passed,1.60
slider_scored.tlsf,realizable,.73,260,passed,.72
torcs_accelerating.tlsf,realizable,.07,1,passed,.10
torcs_gearing.tlsf,realizable,.04,16,passed,.10
torcs_simple.tlsf,realizable,.09,18,passed,.09
torcs_steering_improved.tlsf,realizable,.28,182,passed,.40
torcs_steering_simple.tlsf,realizable,.16,25,passed,.10
torcs_steering_smart.tlsf,realizable,.12,122,passed,2.23
zoo0.tlsf,realizable,.13,93,passed,.26
zoo10.tlsf,realizable,.10,82,passed,.23
zoo5.tlsf,realizable,.11,72,passed,.33
